{
    "$schema": "http://json-schema.org/draft-06/schema#",
    "$ref": "#/definitions/Welcome1",
    "definitions": {
        "Welcome1": {
            "type": "object",
            "additionalProperties": false,
            "properties": {
                "id": {
                    "type": "string"
                },
                "idCode": {
                    "type": "string",
                    "format": "date"
                },
                "currency": {
                    "type": "string"
                },
                "paymentTypeCode": {
                    "type": "string"
                },
                "serviceCode": {
                    "type": "string",
                    "format": "integer"
                },
                "merchantOrderId": {
                    "type": "string"
                },
                "amount": {
                    "type": "integer"
                },
                "status": {
                    "type": "string"
                },
                "creationDate": {
                    "type": "integer"
                },
                "updateDate": {
                    "type": "integer"
                },
                "plateNumber": {
                    "type": "string"
                },
                "statusDescription": {
                    "type": "string"
                },
                "recorded": {
                    "type": "boolean"
                },
                "rejected": {
                    "type": "boolean"
                },
                "terminalId": {
                    "type": "string",
                    "format": "integer"
                },
                "pointOfService": {
                    "$ref": "#/definitions/PointOfService"
                },
                "details": {
                    "type": "array",
                    "items": {}
                },
                "attachments": {
                    "type": "array",
                    "items": {}
                },
                "startTime": {
                    "type": "integer"
                }
            },
            "required": [
                "amount",
                "attachments",
                "creationDate",
                "currency",
                "details",
                "id",
                "idCode",
                "merchantOrderId",
                "paymentTypeCode",
                "plateNumber",
                "pointOfService",
                "recorded",
                "rejected",
                "serviceCode",
                "startTime",
                "status",
                "statusDescription",
                "terminalId",
                "updateDate"
            ],
            "title": "Welcome1"
        },
        "PointOfService": {
            "type": "object",
            "additionalProperties": false,
            "properties": {
                "code": {
                    "type": "string",
                    "format": "integer"
                },
                "address": {
                    "type": "string"
                },
                "agreementCode": {
                    "type": "integer"
                },
                "upperAgreementCode": {
                    "type": "string",
                    "format": "integer"
                },
                "serviceCode": {
                    "type": "string",
                    "format": "integer"
                },
                "serviceCounterpartCode": {
                    "type": "string",
                    "format": "integer"
                },
                "externalPointOfService": {
                    "type": "string"
                },
                "description": {
                    "type": "string"
                },
                "upperAgreementName": {
                    "type": "string"
                },
                "agreementName": {
                    "type": "string"
                },
                "description1": {
                    "type": "string"
                }
            },
            "required": [
                "address",
                "agreementCode",
                "agreementName",
                "code",
                "description",
                "description1",
                "externalPointOfService",
                "serviceCode",
                "serviceCounterpartCode",
                "upperAgreementCode",
                "upperAgreementName"
            ],
            "title": "PointOfService"
        }
    }
}
