{
    "$schema": "http://json-schema.org/draft-06/schema#",
    "$ref": "#/definitions/Welcome4",
    "definitions": {
        "Welcome4": {
            "type": "object",
            "additionalProperties": false,
            "properties": {
                "id": {
                    "type": "string"
                },
                "pyngCode": {
                    "type": "string",
                    "format": "integer"
                },
                "contractCode": {
                    "type": "string",
                    "format": "integer"
                },
                "paymentTypeCode": {
                    "type": "string"
                },
                "amount": {
                    "type": "integer"
                },
                "pointOfService": {
                    "$ref": "#/definitions/PointOfService"
                },
                "externalId": {
                    "type": "string"
                },
                "instalmentType": {
                    "type": "string"
                },
                "oneTimeAmounts": {
                    "type": "array",
                    "items": {
                        "$ref": "#/definitions/OneTimeAmount"
                    }
                },
                "validityEndDate": {
                    "type": "integer"
                },
                "validityStartDate": {
                    "type": "integer"
                },
                "authorizationCode": {
                    "type": "string"
                },
                "status": {
                    "type": "string"
                },
                "creationDate": {
                    "type": "integer"
                },
                "userExternalId": {
                    "type": "null"
                },
                "userTaxCode": {
                    "type": "null"
                },
                "installments": {
                    "type": "array",
                    "items": {}
                }
            },
            "required": [
                "amount",
                "authorizationCode",
                "contractCode",
                "creationDate",
                "externalId",
                "id",
                "installments",
                "instalmentType",
                "oneTimeAmounts",
                "paymentTypeCode",
                "pointOfService",
                "pyngCode",
                "status",
                "userExternalId",
                "userTaxCode",
                "validityEndDate",
                "validityStartDate"
            ],
            "title": "Welcome4"
        },
        "OneTimeAmount": {
            "type": "object",
            "additionalProperties": false,
            "properties": {
                "description": {
                    "type": "string"
                },
                "amount": {
                    "type": "integer"
                },
                "currency": {
                    "type": "string"
                },
                "pointOfService": {
                    "$ref": "#/definitions/PointOfService"
                },
                "transactionId": {
                    "type": "string"
                },
                "status": {
                    "type": "string"
                },
                "productList": {
                    "type": "array",
                    "items": {
                        "$ref": "#/definitions/ProductList"
                    }
                }
            },
            "required": [
                "amount",
                "currency",
                "description",
                "pointOfService",
                "productList",
                "status",
                "transactionId"
            ],
            "title": "OneTimeAmount"
        },
        "PointOfService": {
            "type": "object",
            "additionalProperties": false,
            "properties": {
                "address": {
                    "type": "string"
                },
                "code": {
                    "type": "string",
                    "format": "integer"
                },
                "description": {
                    "type": "string"
                },
                "serviceCode": {
                    "type": "string",
                    "format": "integer"
                },
                "siteId": {
                    "type": "null"
                },
                "plantType": {
                    "type": "null"
                },
                "agreementCode": {
                    "type": "integer"
                },
                "upperAgreementCode": {
                    "type": "string",
                    "format": "integer"
                },
                "serviceCounterpartCode": {
                    "type": "string",
                    "format": "integer"
                },
                "upperServiceCounterpartCode": {
                    "type": "null"
                },
                "externalPointOfService": {
                    "type": "string"
                },
                "upperAgreementName": {
                    "type": "string"
                },
                "agreementName": {
                    "type": "string"
                },
                "description1": {
                    "type": "string"
                },
                "description2": {
                    "type": "null"
                },
                "description3": {
                    "type": "null"
                },
                "description4": {
                    "type": "null"
                },
                "description5": {
                    "type": "null"
                },
                "infAgg": {
                    "type": "null"
                }
            },
            "required": [
                "address",
                "agreementCode",
                "agreementName",
                "code",
                "description",
                "description1",
                "description2",
                "description3",
                "description4",
                "description5",
                "externalPointOfService",
                "infAgg",
                "plantType",
                "serviceCode",
                "serviceCounterpartCode",
                "siteId",
                "upperAgreementCode",
                "upperAgreementName",
                "upperServiceCounterpartCode"
            ],
            "title": "PointOfService"
        },
        "ProductList": {
            "type": "object",
            "additionalProperties": false,
            "properties": {
                "id": {
                    "type": "integer"
                },
                "description": {
                    "type": "string"
                },
                "unitPrice": {
                    "type": "number"
                },
                "unitMeasure": {
                    "type": "string"
                },
                "quantity": {
                    "type": "integer"
                },
                "amount": {
                    "type": "integer"
                }
            },
            "required": [
                "amount",
                "description",
                "id",
                "quantity",
                "unitMeasure",
                "unitPrice"
            ],
            "title": "ProductList"
        }
    }
}
