*** Variable ***
${body_prenotazione3part}    {"amount": 123,"currency":"EUR", "pointOfService":{"code":"18"},"serviceCode":"23", "paymentTypeCode": "KTH","plateNumber":"AA233"}
${body_additionaldata64}    {"serviceCode":"64","trxAdditionalData":{"connectorType":"CHAdeMO","controlUnitAddress":"P.zza del Duomo","evseId":"ALL_GOOD_1", "fareType":"Base a consumo","locationName":"Simulator Location 1","plugChargeType":"DC"}}
${body_additionaldata35}    {"serviceCode":"35","trxAdditionalData":{"outboundArrivalDate":"02/02/2022","outboundArrivalStation":"Bologna Centrale","outboundArrivalTime":"19:13","outboundDepartureDate":"02/02/2022","outboundDepartureStation":"Firenze S. M. Novella","outboundDepartureTime":"18:36","outboundTrainType":"Frecciarossa"}}
${body_additionaldata63}    {"serviceCode":"63","trxAdditionalData":{"outboundArrivalDate":"12/01/2022","outboundArrivalLocation":"Bologna Autostazione","outboundArrivalTime":"11:25","outboundBusNumber1":"1902","outboundDepartureDate":"12/01/2022","outboundDepartureLocation":"Firenze (Villa Costanza)","outboundDepartureTime":"10:05","passengerName1":"SANTO","passengerSurname1":"GRAAL","passengersNumber":"1","receiptNumber":"E521042207","ticketNumber":"IXF7SC-00001"}}
${body_traghetti}    {"amount":0,"pointOfService":{"code":1994,"serviceCode":"37"},"externalId":"WS2111E006","instalmentType":"02","oneTimeAmounts":[{"description":"andata","amount":1708,"pointOfService":{"code":1994,"serviceCode":"37"},"productList":[{"id":1,"description":"Genova - Bastia 2022-06-01 21:00 - Adulti: 2","unitPrice":4000,"unitMeasure":"pz","quantity":1,"amount":4000},{"id":2,"description":"Tasse","unitPrice":2708,"unitMeasure":"pz","quantity":1,"amount":2708}],"currency":"EUR"},{"description":"ritorno","amount":1876,"pointOfService":{"code":1994,"serviceCode":"37"},"productList":[{"id":1,"description":"Bastia - Genova 2022-06-02 11:00 - Adulti: 2","unitPrice":4000,"unitMeasure":"pz","quantity":1,"amount":4000},{"id":2,"description":"Tasse","unitPrice":2876,"unitMeasure":"pz","quantity":1,"amount":2876}],"currency":"EUR"}],"validityEndDate":1654186500000,"validityStartDate":1654110000000,"instalmentsNumber":0,"productList":[],"paymentTypeCode":"KTH"}
${body_abbonamentoATM}    {"pyngCode":"1000099638","amount":33000,"pointOfService":{"code":2173,"serviceCode":"44"},"externalId":"67EFD971-2275-EC11-8173-00505693118A","instalmentType":"01","oneTimeAmounts":[{"description":"Spese creazione tessera ATM","amount":1000,"pointOfService":{"code":2175,"serviceCode":"44"},"productList":[{"id":3,"description":"Spese creazione tessera ATM","unitPrice":1000,"unitMeasure":"pz","quantity":1,"amount":1000}],"currency":"EUR"},{"description":"Spese spedizione tessera ATM","amount":500,"pointOfService":{"code":2177,"serviceCode":"44"},"productList":[{"id":4,"description":"Spese spedizione tessera ATM","unitPrice":500,"unitMeasure":"pz","quantity":1,"amount":500}],"currency":"EUR"}],"validityEndDate":1677625199000,"validityStartDate":1646089200000,"instalmentsNumber":12,"productList":[{"id":1,"description":"Abbonamento annuale ATM","unitPrice":33000,"unitMeasure":"pz","quantity":1,"amount":33000}],"paymentTypeCode":"KTH"}
${body_modificaSkipass}    {"amount":3000}
${body_confermaMultiSkipass}    {"confirmations":[{    "amount":500,"currency":"EUR","externalId":"ugwlrpizsy7qmhkg","pointOfService":{"code":"1985"},    "details":[    {"productId":"1","productName":"Skipass 00-0000-0069 - Skipass 00-0000-0069 - Cab. Express Pradalago Andata Adulto 18/02/2020",    "uom":"pz",    "quantity":"1",    "unitPrice":1200,"amount":10},{    "productId":"2","productName":"Skipass 00-0000-0069 - Skipass 00-0000-0069 - Cab. Express Pradalago Andata Adulto 18/02/2020","uom":"pz","quantity":"1","unitPrice":1200,"amount":10}]},{"amount":500,"currency":"EUR",    "externalId":"ugwlrpizsy7qmhkg","pointOfService":{"code":"1985"    },"details":[{"productId":"1","productName":"Skipass 00-0000-0069 - Skipass 00-0000-0069 - Cab. Express Pradalago Andata Adulto 18/02/2020","uom":"pz","quantity":"1","unitPrice":1200,"amount":10},{"productId":"2","productName":"Skipass 00-0000-0069 - Skipass 00-0000-0069 - Cab. Express Pradalago Andata Adulto 18/02/2020","uom":"pz","quantity":"1","unitPrice":1200,"amount":10}]}]}
${body_cashback}     {"transactionId":"KDB_5D0C7C16-4FB2-4B0B-BE59-9C226AADE1D6","titleType":"SM","titleCode":"1000115129","serviceCode":"35","cashbackAmount":10,"initiativeCode":1124,"currency":"EUR","cashbackId":"1648044693715.0005-0820884f-915f-48e7-8e63-44f5061ab88d","cashbackRuleId":"CB_20220323151133"}
